Semester III/Digital Design and Computer Organization/Verilog/DDCO Lab/Session 03/OLD/FS.vcd
$date
	Thu Aug 30 15:00:58 2018
$end
$version
	Icarus Verilog
$end
$timescale
	1s
$end
$scope module FS_TB $end
$var wire 1 ! t_cout $end
$var wire 1 " t_cout1 $end
$var wire 1 # t_diff $end
$var wire 1 $ t_s $end
$var reg 1 % t_a $end
$var reg 1 & t_b $end
$var reg 1 ' t_cin $end
$var reg 1 ( t_d $end
$scope module I1 $end
$var wire 1 ) A $end
$var wire 1 * B $end
$var wire 1 + Cin $end
$var wire 1 " Cout $end
$var wire 1 , Dec $end
$var wire 1 # Diff $end
$var wire 1 - T0 $end
$scope module A4 $end
$var wire 1 * i0 $end
$var wire 1 , i1 $end
$var wire 1 - o $end
$upscope $end
$scope module d $end
$var wire 1 ) A $end
$var wire 1 - B $end
$var wire 1 + Cin $end
$var wire 1 " Cout $end
$var wire 1 # S $end
$var wire 1 . T0 $end
$var wire 1 / T1 $end
$var wire 1 0 T2 $end
$scope module X1 $end
$var wire 1 ) i0 $end
$var wire 1 - i1 $end
$var wire 1 + i2 $end
$var wire 1 # o $end
$var wire 1 1 t $end
$scope module xor2_0 $end
$var wire 1 ) i0 $end
$var wire 1 - i1 $end
$var wire 1 1 o $end
$upscope $end
$scope module xor2_1 $end
$var wire 1 + i0 $end
$var wire 1 1 i1 $end
$var wire 1 # o $end
$upscope $end
$upscope $end
$scope module A1 $end
$var wire 1 ) i0 $end
$var wire 1 - i1 $end
$var wire 1 . o $end
$upscope $end
$scope module A2 $end
$var wire 1 - i0 $end
$var wire 1 + i1 $end
$var wire 1 / o $end
$upscope $end
$scope module A3 $end
$var wire 1 + i0 $end
$var wire 1 ) i1 $end
$var wire 1 0 o $end
$upscope $end
$scope module O1 $end
$var wire 1 . i0 $end
$var wire 1 / i1 $end
$var wire 1 0 i2 $end
$var wire 1 " o $end
$var wire 1 2 t $end
$scope module or2_0 $end
$var wire 1 . i0 $end
$var wire 1 / i1 $end
$var wire 1 2 o $end
$upscope $end
$scope module or2_1 $end
$var wire 1 0 i0 $end
$var wire 1 2 i1 $end
$var wire 1 " o $end
$upscope $end
$upscope $end
$upscope $end
$upscope $end
$upscope $end
$enddefinitions $end
#0
$dumpvars
02
x1
00
0/
0.
x-
x,
0+
0*
0)
x(
0'
0&
0%
z$
x#
0"
z!
$end
#10
x"
x2
x/
1'
1+
#15
0"
02
0/
0'
0+
1&
1*
#20
x"
x2
x/
1'
1+
#25
0/
x.
0'
0+
0&
0*
1%
1)
#30
1"
x/
10
1'
1+
#35
x"
0/
00
0'
0+
1&
1*
#40
1"
x/
10
1'
1+
